Mini Project 1 – STA 9750 2024 Submission Material
…
USAGE_2022_ANNUAL <- USAGE |>
  filter(year(month) == 2022) |>
  group_by(`NTD ID`, Agency, `metro_area`, Mode) |>
  summarize(
    UPT = sum(UPT, na.rm = TRUE),
    VRM = sum(VRM, na.rm = TRUE)
  ) %>%
  ungroup()

`summarise()` has grouped output by 'NTD ID', 'Agency', 'metro_area'. You can
override using the `.groups` argument.

USAGE_2022_ANNUAL

# A tibble: 1,141 × 6
   `NTD ID` Agency                                metro_area Mode     UPT    VRM
      <int> <chr>                                 <chr>      <chr>  <dbl>  <dbl>
 1        1 King County                           Seattle--… Bus   5.40e7 6.16e7
 2        1 King County                           Seattle--… Dema… 6.63e5 1.29e7
 3        1 King County                           Seattle--… Ferr… 4.00e5 5.12e4
 4        1 King County                           Seattle--… Stre… 1.12e6 1.80e5
 5        1 King County                           Seattle--… Trol… 9.58e6 2.64e6
 6        1 King County                           Seattle--… Vanp… 7.03e5 4.41e6
 7        2 Spokane Transit Authority             Spokane, … Bus   6.60e6 6.49e6
 8        2 Spokane Transit Authority             Spokane, … Dema… 3.10e5 4.04e6
 9        2 Spokane Transit Authority             Spokane, … Vanp… 9.06e4 9.06e5
10        3 Pierce County Transportation Benefit… Seattle--… Bus   4.95e6 4.23e6
# ℹ 1,131 more rows
…
